<svg xmlns="http://www.w3.org/2000/svg" width="65" height="66" viewBox="0 0 65 66">
  <g id="Group_786" data-name="Group 786" transform="translate(-663 -40)">
    <rect id="Rectangle_1452" data-name="Rectangle 1452" width="65" height="66" rx="10" transform="translate(663 40)" fill="#bce0fd"/>
    <text id="X" transform="translate(684 87)" fill="#2699fb" font-size="40" font-family="GhiyaStrokes, Ghiya Strokes"><tspan x="0" y="0">X</tspan></text>
  </g>
</svg>
