<svg id="ic-user" xmlns="http://www.w3.org/2000/svg" width="70" height="70" viewBox="0 0 70 70">
  <g id="Layer_2" data-name="Layer 2" transform="translate(6.563 6.563)">
    <path id="Path_157" data-name="Path 157" d="M31.437,59.875A28.437,28.437,0,1,1,59.875,31.438,28.437,28.437,0,0,1,31.437,59.875Zm0-52.5A24.062,24.062,0,1,0,55.5,31.437,24.063,24.063,0,0,0,31.437,7.375Z" transform="translate(-3 -3)" fill="#0b57d0"/>
    <path id="Path_158" data-name="Path 158" d="M21.937,28.875A10.938,10.938,0,1,1,32.875,17.938,10.938,10.938,0,0,1,21.937,28.875Zm0-17.5A6.563,6.563,0,1,0,28.5,17.938,6.563,6.563,0,0,0,21.937,11.375Z" transform="translate(6.5 1.75)" fill="#0b57d0"/>
    <path id="Path_159" data-name="Path 159" d="M48.7,31.125a2.188,2.188,0,0,1-1.619-.7,24.828,24.828,0,0,0-18.266-8.05H26.805A24.653,24.653,0,0,0,9.633,29.288a2.188,2.188,0,0,1-3.019-3.15A28.963,28.963,0,0,1,26.805,18h2.013A29.291,29.291,0,0,1,50.3,27.45a2.187,2.187,0,0,1-1.6,3.675Z" transform="translate(0.626 14.812)" fill="#0b57d0"/>
  </g>
  <g id="frame">
    <rect id="Rectangle_1471" data-name="Rectangle 1471" width="70" height="70" fill="none"/>
  </g>
</svg>
