<svg id="Layer" xmlns="http://www.w3.org/2000/svg" width="18.614" height="18.988" viewBox="0 0 18.614 18.988">
  <path id="Layer-2" data-name="Layer" d="M802.617,650.661a8.134,8.134,0,0,0-.2-1.941H793.5v3.523h5.234a4.639,4.639,0,0,1-1.942,3.08l-.018.118,2.819,2.183.2.02A9.282,9.282,0,0,0,802.617,650.661Z" transform="translate(-784.003 -640.956)" fill="#2699fb"/>
  <path id="Layer-3" data-name="Layer" d="M93.124,957.776a9.053,9.053,0,0,0,6.289-2.3l-3-2.321a5.622,5.622,0,0,1-3.292.949,5.717,5.717,0,0,1-5.4-3.945l-.111.009-2.932,2.268-.038.107A9.49,9.49,0,0,0,93.124,957.776Z" transform="translate(-83.627 -938.788)" fill="#2699fb"/>
  <path id="Layer-4" data-name="Layer" d="M4.094,439.506a5.844,5.844,0,0,1-.316-1.878,6.141,6.141,0,0,1,.306-1.878l-.005-.126-2.968-2.3-.1.046a9.471,9.471,0,0,0,0,8.524Z" transform="translate(0 -428.134)" fill="#2699fb"/>
  <path id="Layer-5" data-name="Layer" d="M93.124,3.671A5.264,5.264,0,0,1,96.8,5.085l2.68-2.616A9.126,9.126,0,0,0,93.124,0,9.49,9.49,0,0,0,84.64,5.232l3.071,2.384A5.74,5.74,0,0,1,93.124,3.671Z" transform="translate(-83.627)" fill="#2699fb"/>
</svg>
