<svg id="Yes" xmlns="http://www.w3.org/2000/svg" width="22" height="22" viewBox="0 0 22 22">
  <circle id="Ellipse_110" data-name="Ellipse 110" cx="11" cy="11" r="11" fill="#010407"/>
  <path id="Checkbox" d="M6.927,12.047,0,5.12,1.405,3.715,6.927,9.136,16.063,0l1.405,1.405Z" transform="translate(2.221 5.004)" fill="#fff"/>
</svg>
